<?xml version="1.0" encoding="UTF-8" standalone="no"?>
<!-- Created with Inkscape (http://www.inkscape.org/) -->

<svg
   xmlns:dc="http://purl.org/dc/elements/1.1/"
   xmlns:cc="http://creativecommons.org/ns#"
   xmlns:rdf="http://www.w3.org/1999/02/22-rdf-syntax-ns#"
   xmlns:svg="http://www.w3.org/2000/svg"
   xmlns="http://www.w3.org/2000/svg"
   xmlns:sodipodi="http://sodipodi.sourceforge.net/DTD/sodipodi-0.dtd"
   xmlns:inkscape="http://www.inkscape.org/namespaces/inkscape"
   version="1.1"
   id="svg1336"
   width="317.59326mm"
   height="317.59326mm"
   viewBox="0 0 1200.3522 1200.3524"
   sodipodi:docname="anarchy.svg"
   inkscape:version="0.92.2 2405546, 2018-03-11">
  <metadata
     id="metadata1342">
    <rdf:RDF>
      <cc:Work
         rdf:about="">
        <dc:format>image/svg+xml</dc:format>
        <dc:type
           rdf:resource="http://purl.org/dc/dcmitype/StillImage" />
        <dc:title></dc:title>
      </cc:Work>
    </rdf:RDF>
  </metadata>
  <defs
     id="defs1340" />
  <sodipodi:namedview
     pagecolor="#ffffff"
     bordercolor="#666666"
     borderopacity="1"
     objecttolerance="10"
     gridtolerance="10"
     guidetolerance="10"
     inkscape:pageopacity="0"
     inkscape:pageshadow="2"
     inkscape:window-width="1920"
     inkscape:window-height="1080"
     id="namedview1338"
     showgrid="false"
     units="mm"
     inkscape:zoom="0.33129407"
     inkscape:cx="-264.38134"
     inkscape:cy="529.61393"
     inkscape:window-x="0"
     inkscape:window-y="0"
     inkscape:window-maximized="0"
     inkscape:current-layer="layer3"
     fit-margin-top="0"
     fit-margin-left="0"
     fit-margin-right="0"
     fit-margin-bottom="0" />
  <g
     inkscape:groupmode="layer"
     id="layer3"
     inkscape:label="Gender Anarchy"
     transform="translate(-170.49788,-2963.9164)"
     style="display:inline">
    <g
       id="g1363"
       transform="translate(-2.3391638e-5,-64.697708)">
      <path
         sodipodi:nodetypes="cc"
         inkscape:connector-curvature="0"
         id="path4711"
         d="m 778.63635,3234.6349 c -41.18526,-22.0987 40.67815,-37.511 -5.63136,-67.1372"
         style="fill:none;fill-rule:evenodd;stroke:#000000;stroke-width:18.89763832;stroke-linecap:butt;stroke-linejoin:miter;stroke-miterlimit:4;stroke-dasharray:none;stroke-opacity:1" />
      <path
         sodipodi:nodetypes="cc"
         inkscape:connector-curvature="0"
         id="path4711-6"
         d="m 774.67357,3168.4084 c -41.18526,-22.0987 40.67815,-37.5109 -5.63137,-67.1371"
         style="display:inline;fill:none;fill-rule:evenodd;stroke:#000000;stroke-width:18.89763832;stroke-linecap:butt;stroke-linejoin:miter;stroke-miterlimit:4;stroke-dasharray:none;stroke-opacity:1" />
      <path
         inkscape:connector-curvature="0"
         id="path1906"
         d="m 1136.8442,3599.3536 c 6.729,151.5876 -101.4142,291.2636 -239.64088,344.6147 -80.41635,32.9117 -172.44262,33.5161 -253.5869,2.6934 -159.695,-51.4733 -258.40878,-226.7564 -241.68035,-390.2422 7.82027,-90.848 56.56677,-174.6409 122.80204,-235.6205 143.24123,-126.0601 387.88899,-117.6662 514.91369,27.8206 61.0274,68.5675 97.8785,158.4705 97.1924,250.734 z"
         style="fill:none;fill-opacity:1;stroke:#000000;stroke-width:37.79527664;stroke-linecap:butt;stroke-linejoin:miter;stroke-miterlimit:4;stroke-dasharray:none;stroke-dashoffset:0;stroke-opacity:1;paint-order:normal" />
      <path
         inkscape:connector-curvature="0"
         id="path5632"
         d="M 674.12732,4069.7806 H 863.1037"
         style="fill:none;fill-rule:evenodd;stroke:#000000;stroke-width:18.89763832;stroke-linecap:butt;stroke-linejoin:miter;stroke-miterlimit:4;stroke-dasharray:none;stroke-opacity:1" />
      <path
         inkscape:connector-curvature="0"
         id="path5632-6"
         d="m 768.61551,3975.2924 v 188.9764"
         style="display:inline;fill:none;fill-rule:evenodd;stroke:#000000;stroke-width:18.89763832;stroke-linecap:butt;stroke-linejoin:miter;stroke-miterlimit:4;stroke-dasharray:none;stroke-opacity:1" />
      <path
         inkscape:connector-curvature="0"
         id="path5653-6-5"
         d="m 1028.0788,3338.7713 133.6265,-133.6265"
         style="display:inline;fill:none;fill-rule:evenodd;stroke:#000000;stroke-width:18.89763832;stroke-linecap:butt;stroke-linejoin:miter;stroke-miterlimit:4;stroke-dasharray:none;stroke-opacity:1" />
      <path
         inkscape:connector-curvature="0"
         id="path6023-5-6"
         d="m 1162.3363,3195.065 v 113.3858"
         style="display:inline;fill:none;fill-rule:evenodd;stroke:#000000;stroke-width:18.89763832;stroke-linecap:butt;stroke-linejoin:miter;stroke-miterlimit:4;stroke-dasharray:none;stroke-opacity:1" />
      <path
         inkscape:connector-curvature="0"
         id="path6023-7-3-2"
         d="M 1171.7851,3204.5138 H 1058.3993"
         style="display:inline;fill:none;fill-rule:evenodd;stroke:#000000;stroke-width:18.89763832;stroke-linecap:butt;stroke-linejoin:miter;stroke-miterlimit:4;stroke-dasharray:none;stroke-opacity:1" />
      <path
         inkscape:connector-curvature="0"
         id="path5653-6"
         d="M 506.7295,3337.2125 373.10301,3203.586"
         style="fill:none;fill-rule:evenodd;stroke:#000000;stroke-width:18.89763832;stroke-linecap:butt;stroke-linejoin:miter;stroke-miterlimit:4;stroke-dasharray:none;stroke-opacity:1" />
      <path
         inkscape:connector-curvature="0"
         id="path6023-5"
         d="m 363.0232,3202.955 113.38577,1e-4"
         style="fill:none;fill-rule:evenodd;stroke:#000000;stroke-width:18.89763832;stroke-linecap:butt;stroke-linejoin:miter;stroke-miterlimit:4;stroke-dasharray:none;stroke-opacity:1" />
      <path
         inkscape:connector-curvature="0"
         id="path6023-7-3"
         d="m 372.47198,3193.5062 v 113.3859"
         style="display:inline;fill:none;fill-rule:evenodd;stroke:#000000;stroke-width:18.89763832;stroke-linecap:butt;stroke-linejoin:miter;stroke-miterlimit:4;stroke-dasharray:none;stroke-opacity:1" />
      <path
         inkscape:connector-curvature="0"
         id="path6023-5-9"
         d="m 489.10642,3239.4136 -80.17594,80.1758"
         style="display:inline;fill:none;fill-rule:evenodd;stroke:#000000;stroke-width:18.89763832;stroke-linecap:butt;stroke-linejoin:miter;stroke-miterlimit:4;stroke-dasharray:none;stroke-opacity:1" />
      <path
         sodipodi:nodetypes="ccc"
         inkscape:connector-curvature="0"
         id="path1071"
         d="m 517.72228,3871.7589 250.89327,-641.124 250.89325,641.124"
         style="fill:none;fill-rule:evenodd;stroke:#000000;stroke-width:37.79527664;stroke-linecap:butt;stroke-linejoin:bevel;stroke-miterlimit:4;stroke-dasharray:none;stroke-opacity:1" />
      <path
         inkscape:connector-curvature="0"
         id="path1073"
         d="m 644.56374,3562.1164 248.30069,1e-4"
         style="fill:none;fill-rule:evenodd;stroke:#000000;stroke-width:37.79527664;stroke-linecap:butt;stroke-linejoin:miter;stroke-miterlimit:4;stroke-dasharray:none;stroke-opacity:1" />
      <g
         id="g1305">
        <circle
           style="fill:none;fill-opacity:1;stroke:#000000;stroke-width:18.89763832;stroke-linecap:butt;stroke-linejoin:bevel;stroke-miterlimit:4;stroke-dasharray:none;stroke-dashoffset:0;stroke-opacity:1;paint-order:normal"
           id="path4778"
           cx="1238.5669"
           cy="3600.7175"
           r="28.346457" />
        <circle
           style="display:inline;fill:none;fill-opacity:1;stroke:#000000;stroke-width:18.89763832;stroke-linecap:butt;stroke-linejoin:bevel;stroke-miterlimit:4;stroke-dasharray:none;stroke-dashoffset:0;stroke-opacity:1;paint-order:normal"
           id="path4778-7"
           cx="1323.6063"
           cy="3600.7175"
           r="37.795273" />
        <circle
           style="display:inline;fill:none;fill-opacity:1;stroke:#000000;stroke-width:18.89763832;stroke-linecap:butt;stroke-linejoin:bevel;stroke-miterlimit:4;stroke-dasharray:none;stroke-dashoffset:0;stroke-opacity:1;paint-order:normal"
           id="path4778-89"
           cx="1172.4252"
           cy="3600.7175"
           r="18.897638" />
      </g>
      <path
         transform="matrix(0.35576552,0.61753295,0.61620396,-0.35653281,2996.9399,1596.4362)"
         d="m 1446.1574,-3904.1814 c 10.7642,-5.8809 22.146,4.7124 24.4464,14.81 4.1847,18.3687 -11.8416,34.2798 -29.1748,36.3819 -25.617,3.1068 -46.6518,-19.0222 -48.3174,-43.5396 -2.2287,-32.8056 26.214,-59.1149 57.9043,-60.2529 39.9783,-1.4356 71.6231,33.4095 72.1884,72.2691 0.686,47.1454 -40.6065,84.1568 -86.6338,84.124 -54.3103,-0.039 -96.7065,-47.8047 -96.0595,-100.9987 0.036,-2.962 0.1979,-5.9224 0.4843,-8.8707"
         sodipodi:t0="0.11830523"
         sodipodi:argument="-21.814915"
         sodipodi:radius="105.64892"
         sodipodi:revolution="2"
         sodipodi:expansion="1"
         sodipodi:cy="-3891.7356"
         sodipodi:cx="1445.0078"
         id="path1006"
         style="fill:none;fill-rule:evenodd;stroke:#000000;stroke-width:26.53052521;stroke-linecap:butt;stroke-linejoin:miter;stroke-miterlimit:4;stroke-dasharray:none;stroke-opacity:1"
         sodipodi:type="spiral" />
      <path
         inkscape:connector-curvature="0"
         id="path6023-5-6-5"
         d="m 462.21339,3815.5607 -10.78859,77.9176"
         style="display:inline;fill:none;fill-rule:evenodd;stroke:#000000;stroke-width:18.89763832;stroke-linecap:butt;stroke-linejoin:miter;stroke-miterlimit:4;stroke-dasharray:none;stroke-opacity:1" />
      <path
         inkscape:connector-curvature="0"
         id="path6023-7-3-2-6"
         d="m 467.80747,3821.1547 -77.91763,10.7886"
         style="display:inline;fill:none;fill-rule:evenodd;stroke:#000000;stroke-width:18.89763832;stroke-linecap:butt;stroke-linejoin:miter;stroke-miterlimit:4;stroke-dasharray:none;stroke-opacity:1" />
      <path
         inkscape:connector-curvature="0"
         id="path6023-5-6-5-2"
         d="m 451.4248,3893.4783 -5.11505,44.7822"
         style="display:inline;fill:none;fill-rule:evenodd;stroke:#000000;stroke-width:18.89763832;stroke-linecap:butt;stroke-linejoin:miter;stroke-miterlimit:4;stroke-dasharray:none;stroke-opacity:1" />
      <path
         inkscape:connector-curvature="0"
         id="path6023-7-3-2-6-9"
         d="m 454.73039,3896.7839 -44.7822,5.115"
         style="display:inline;fill:none;fill-rule:evenodd;stroke:#000000;stroke-width:18.89763832;stroke-linecap:butt;stroke-linejoin:miter;stroke-miterlimit:4;stroke-dasharray:none;stroke-opacity:1" />
      <path
         inkscape:connector-curvature="0"
         id="path6023-5-6-5-2-1"
         d="m 386.58425,3828.6377 -5.11505,44.7822"
         style="display:inline;fill:none;fill-rule:evenodd;stroke:#000000;stroke-width:18.89763832;stroke-linecap:butt;stroke-linejoin:miter;stroke-miterlimit:4;stroke-dasharray:none;stroke-opacity:1" />
      <path
         inkscape:connector-curvature="0"
         id="path6023-7-3-2-6-9-2"
         d="m 389.88984,3831.9433 -44.78221,5.1151"
         style="display:inline;fill:none;fill-rule:evenodd;stroke:#000000;stroke-width:18.89763832;stroke-linecap:butt;stroke-linejoin:miter;stroke-miterlimit:4;stroke-dasharray:none;stroke-opacity:1" />
      <path
         inkscape:connector-curvature="0"
         id="path6023-5-6-5-2-7"
         d="m 446.30974,3938.2605 -1.47312,24.0337"
         style="display:inline;fill:none;fill-rule:evenodd;stroke:#000000;stroke-width:18.89763832;stroke-linecap:butt;stroke-linejoin:miter;stroke-miterlimit:4;stroke-dasharray:none;stroke-opacity:1" />
      <path
         inkscape:connector-curvature="0"
         id="path6023-7-3-2-6-9-0"
         d="m 448.18978,3940.1406 -24.03364,1.4731"
         style="display:inline;fill:none;fill-rule:evenodd;stroke:#000000;stroke-width:18.89763832;stroke-linecap:butt;stroke-linejoin:miter;stroke-miterlimit:4;stroke-dasharray:none;stroke-opacity:1" />
      <path
         inkscape:connector-curvature="0"
         id="path6023-5-6-5-2-7-0"
         d="m 408.06814,3900.0189 -1.47312,24.0337"
         style="display:inline;fill:none;fill-rule:evenodd;stroke:#000000;stroke-width:18.89763832;stroke-linecap:butt;stroke-linejoin:miter;stroke-miterlimit:4;stroke-dasharray:none;stroke-opacity:1" />
      <path
         inkscape:connector-curvature="0"
         id="path6023-7-3-2-6-9-0-6"
         d="m 409.94818,3901.899 -24.03364,1.4731"
         style="display:inline;fill:none;fill-rule:evenodd;stroke:#000000;stroke-width:18.89763832;stroke-linecap:butt;stroke-linejoin:miter;stroke-miterlimit:4;stroke-dasharray:none;stroke-opacity:1" />
      <path
         inkscape:connector-curvature="0"
         id="path6023-5-6-5-2-7-6"
         d="m 381.46924,3873.4199 -1.47312,24.0337"
         style="display:inline;fill:none;fill-rule:evenodd;stroke:#000000;stroke-width:18.89763832;stroke-linecap:butt;stroke-linejoin:miter;stroke-miterlimit:4;stroke-dasharray:none;stroke-opacity:1" />
      <path
         inkscape:connector-curvature="0"
         id="path6023-7-3-2-6-9-0-1"
         d="m 383.34928,3875.3 -24.03364,1.4731"
         style="display:inline;fill:none;fill-rule:evenodd;stroke:#000000;stroke-width:18.89763832;stroke-linecap:butt;stroke-linejoin:miter;stroke-miterlimit:4;stroke-dasharray:none;stroke-opacity:1" />
      <path
         inkscape:connector-curvature="0"
         id="path6023-5-6-5-2-7-7"
         d="m 343.22764,3835.1783 -1.47312,24.0337"
         style="display:inline;fill:none;fill-rule:evenodd;stroke:#000000;stroke-width:18.89763832;stroke-linecap:butt;stroke-linejoin:miter;stroke-miterlimit:4;stroke-dasharray:none;stroke-opacity:1" />
      <path
         inkscape:connector-curvature="0"
         id="path6023-7-3-2-6-9-0-9"
         d="m 345.10768,3837.0584 -24.03364,1.4731"
         style="display:inline;fill:none;fill-rule:evenodd;stroke:#000000;stroke-width:18.89763832;stroke-linecap:butt;stroke-linejoin:miter;stroke-miterlimit:4;stroke-dasharray:none;stroke-opacity:1" />
      <g
         id="g1317">
        <path
           style="fill:none;fill-rule:evenodd;stroke:#000000;stroke-width:18.89763832;stroke-linecap:butt;stroke-linejoin:miter;stroke-miterlimit:4;stroke-dasharray:none;stroke-opacity:1"
           d="m 278.26765,3470.9797 89.85643,89.8564"
           id="path4977"
           inkscape:connector-curvature="0" />
        <path
           style="display:inline;fill:none;fill-rule:evenodd;stroke:#000000;stroke-width:18.89763832;stroke-linecap:butt;stroke-linejoin:miter;stroke-miterlimit:4;stroke-dasharray:none;stroke-opacity:1"
           d="M 289.4997,3470.9797 177.17921,3583.3002"
           id="path4977-2"
           inkscape:connector-curvature="0" />
        <path
           style="display:inline;fill:none;fill-rule:evenodd;stroke:#000000;stroke-width:18.89763832;stroke-linecap:butt;stroke-linejoin:miter;stroke-miterlimit:4;stroke-dasharray:none;stroke-opacity:1"
           d="m 368.12407,3549.6041 -89.85642,89.8564"
           id="path4977-2-0"
           inkscape:connector-curvature="0" />
        <path
           style="display:inline;fill:none;fill-rule:evenodd;stroke:#000000;stroke-width:18.89763832;stroke-linecap:butt;stroke-linejoin:miter;stroke-miterlimit:4;stroke-dasharray:none;stroke-opacity:1"
           d="m 222.10736,3572.0682 67.39232,67.3924"
           id="path4977-23"
           inkscape:connector-curvature="0" />
        <path
           style="display:inline;fill:none;fill-rule:evenodd;stroke:#000000;stroke-width:18.89763832;stroke-linecap:butt;stroke-linejoin:miter;stroke-miterlimit:4;stroke-dasharray:none;stroke-opacity:1"
           d="m 289.49968,3515.9079 -67.3923,67.3924"
           id="path4977-2-0-7"
           inkscape:connector-curvature="0" />
        <path
           style="display:inline;fill:none;fill-rule:evenodd;stroke:#000000;stroke-width:18.89763832;stroke-linecap:butt;stroke-linejoin:miter;stroke-miterlimit:4;stroke-dasharray:none;stroke-opacity:1"
           d="m 278.26764,3515.9079 44.92821,44.9282"
           id="path4977-5"
           inkscape:connector-curvature="0" />
        <path
           style="display:inline;fill:none;fill-rule:evenodd;stroke:#000000;stroke-width:18.89763832;stroke-linecap:butt;stroke-linejoin:miter;stroke-miterlimit:4;stroke-dasharray:none;stroke-opacity:1"
           d="m 323.19584,3549.6041 -44.92824,44.9283"
           id="path4977-5-9"
           inkscape:connector-curvature="0" />
        <path
           style="display:inline;fill:none;fill-rule:evenodd;stroke:#000000;stroke-width:18.89763832;stroke-linecap:butt;stroke-linejoin:miter;stroke-miterlimit:4;stroke-dasharray:none;stroke-opacity:1"
           d="m 267.03553,3572.0682 22.46411,22.4642"
           id="path4977-23-2"
           inkscape:connector-curvature="0" />
        <path
           style="display:inline;fill:none;fill-rule:evenodd;stroke:#000000;stroke-width:18.89763832;stroke-linecap:butt;stroke-linejoin:miter;stroke-miterlimit:4;stroke-dasharray:none;stroke-opacity:1"
           d="m 177.1792,3572.0682 112.32053,112.3205"
           id="path4977-28"
           inkscape:connector-curvature="0" />
        <path
           style="display:inline;fill:none;fill-rule:evenodd;stroke:#000000;stroke-width:18.89763832;stroke-linecap:butt;stroke-linejoin:miter;stroke-miterlimit:4;stroke-dasharray:none;stroke-opacity:1"
           d="M 390.58818,3572.0682 278.26769,3684.3887"
           id="path4977-2-9"
           inkscape:connector-curvature="0" />
      </g>
    </g>
  </g>
</svg>
