<?xml version="1.0" encoding="UTF-8" standalone="no"?>
<svg
   xmlns:dc="http://purl.org/dc/elements/1.1/"
   xmlns:cc="http://creativecommons.org/ns#"
   xmlns:rdf="http://www.w3.org/1999/02/22-rdf-syntax-ns#"
   xmlns:svg="http://www.w3.org/2000/svg"
   xmlns="http://www.w3.org/2000/svg"
   viewBox="0 0 84.432023 100.00005"
   height="100.00005"
   width="84.432022"
   id="svg1069"
   version="1.1">
  <metadata
     id="metadata1075">
    <rdf:RDF>
      <cc:Work
         rdf:about="">
        <dc:format>image/svg+xml</dc:format>
        <dc:type
           rdf:resource="http://purl.org/dc/dcmitype/StillImage" />
        <dc:title></dc:title>
      </cc:Work>
    </rdf:RDF>
  </metadata>
  <defs
     id="defs1073" />
  <g
     style="display:inline"
     transform="translate(-1615.7375,-3869.2891)"
     id="layer4">
    <path
       id="path1622"
       d="m 1664.7727,3969.2693 c -13.0452,-0.6216 -26.2116,0.4796 -39.1683,-1.4622 -4.7384,-0.5736 -7.4924,-5.0296 -8,-9.4132 -0.3952,-4.3936 -0.9254,-9.0336 0.4106,-13.3076 1.8332,-4.1858 6.4094,-6.511 10.3814,-8.1918 -1.5636,-5.2174 -1.5944,-10.774 -2.8562,-16.0852 -0.2204,-6.2307 -0.2934,-12.5915 0.054,-18.7753 -4.6144,-0.536 -10.1356,-3.7564 -9.8458,-9.0126 0.088,-3.0772 7.7542,-1.575 9.5492,-1.4318 1.3772,-6.2918 4.8034,-7.4872 9.9727,-8.169 0.4554,-2.1968 -0.8128,-3.9514 0.7032,-10.4632 2.3232,-5.452 3.5482,-4.4008 4.5712,0.3568 1.9636,3.9746 4.9156,10.665 9.3418,10.7992 5.1822,-0.5976 10.4252,-0.3168 15.5958,-1.1246 3.7278,-0.08 7.3082,1.31 9.638,-4.0244 1.397,-3.3276 -0.044,-7.843 2.3074,-9.5926 3.2666,2.8276 4.2536,7.7606 3.4536,11.9324 0.9832,4.238 9.9138,1.6404 9.5504,7.957 0.3956,2.624 6.1022,1.006 7.3398,1.2088 6.3623,0.6876 -1.6696,7.3724 -4.161,8.6254 -5.3688,1.3742 -3.0318,7.7826 -3.854,12.016 0.19,7.3335 -1.9802,14.4389 -3.7046,21.4933 1.491,4.7446 9.692,3.9566 11.0584,9.786 1.6318,4.724 2.5544,10.2854 0.7806,15.1194 -2.126,6.437 -9.0344,9.1536 -15.2254,9.8882 -5.8866,1.174 -11.8748,2.034 -17.8922,1.871 z m -0.8266,-1.2048 c 8.2038,-0.028 16.435,-1.1364 24.2876,-3.512 6.1418,-1.806 9.7398,-8.4576 8.756,-14.605 0.124,-4.8276 -2.589,-9.8532 -7.3074,-11.5368 -3.5712,-2.2166 -8.039,-2.6076 -12.104,-3.5598 -13.2862,-1.8492 -26.8784,-1.3516 -39.9552,1.695 -4.4178,1.202 -9.3517,1.199 -13.1131,3.9736 -4.844,2.264 -6.3388,7.635 -5.808,12.583 0.144,4.8406 0.5124,11.863 6.1194,13.473 13.3769,2.0342 26.6029,1.034 39.1247,1.4888 z m -21.2056,-2.5274 c -2.9506,-0.6686 -6.0032,-5.0268 -2.0582,-3.266 5.7632,3.205 8.4206,1.625 18.1674,2.0702 5.1112,-0.14 9.8552,-1.4256 13.7664,-1.8918 -0.8024,3.2816 -6.2162,2.7722 -9.1378,3.2094 -6.9466,-0.196 -13.7,0.7976 -20.7378,-0.122 z m 21.3106,-1.3378 h -0.09 z m 8.2006,-0.3822 h -0.07 z m -53.3213,-7.1004 h 0.024 z m -0.04,-0.2436 0.026,0.024 z m 30.1911,-12.48 c -8.3554,-1.1082 0.8,-12.111 4.315,-5.2732 1.585,2.8852 -1.5876,5.4192 -4.315,5.2732 z m 13.8138,-0.6684 c -5.9878,-1.1892 -1.3008,-8.5248 3.1454,-6.9236 4.8748,1.0056 1.7026,8.4262 -2.5722,7.0242 z m -35.0313,23.8726 h -0.068 z m 67.2791,-7.9288 c -0.03,-0.2582 -0.08,0.2638 0,0 z m -76.4775,-8.9126 -0.072,-0.02 z m 11.752,-13.8078 c 10.2125,-11.6724 4.7625,-7.0342 0.068,-0.785 0.6782,-2.388 3.4935,-8.0046 4.3551,-6.6942 -1.9182,1.877 -5.6919,4.117 -4.4239,7.4792 z m 2.3377,-0.6304 c 1.406,-0.632 5.4512,-8.2388 4.1528,-3.687 -2.0376,0.8764 -2.6412,5.0958 -0.196,1.9564 0.3546,-2.104 2.971,-5.7274 -0.3834,-3.67 -0.832,1.58 -4.22,4.2906 -3.5736,5.4006 z m 1.4646,-0.4158 c 0.925,-1.7522 3.5432,-5.2536 0.7552,-1.7284 -0.204,0.443 -1.4006,1.3552 -0.7552,1.7284 z m 2.4744,-0.3828 c 2.6504,-0.05 4.2386,-6.8804 1.3494,-2.3978 -0.2474,0.8596 -1.5044,1.4472 -1.3494,2.3978 z m 1.6978,-0.3276 c 2.234,-0.7668 2.2884,-4.3412 0.4734,-1.0824 0.2914,0.196 -1.083,0.8402 -0.4734,1.0824 z m -8.6311,-0.3394 c 1.0436,-2.0838 7.1283,-7.2534 3.6337,-8.1294 -1.105,1.886 -5.0687,4.9752 -3.7485,6.6524 1.4838,-2.366 5.3763,-7.5224 2.0895,-2.437 -0.6959,1.0216 -2.7519,3.0938 -1.9747,3.914 z m 10.1509,-0.048 c 1.03,-1.1316 2.1238,-3.596 0.3972,-0.8292 z m 44.2336,0.094 c 0.2772,-5.1162 2.7432,-9.918 3.2884,-15.0664 1.6004,-5.4129 -6.9408,-7.6735 -11.1628,-6.4867 -3.8892,1.824 -8.7086,1.9274 -12.0716,-1.0482 -3.3274,-2.0018 -5.558,-6.9544 -2.1842,-9.9982 2.4082,-2.822 5.0608,-6.0784 3.7736,-10.0736 0.347,-4.295 -0.156,-7.5826 -6.4364,-6.5576 -2.9254,0.4696 -8.0428,-0.673 -9.61,0.8952 2.838,2.0282 1.4256,4.184 -0.966,1.5146 -2.1618,-2.3082 -4.6734,-5.5756 -6.8706,-8.3316 -2.13,-1.8726 -4.2116,-10.0246 -4.5674,-3.6862 -0.327,5.3218 -0.9744,6.9102 1.3254,9.6664 1.6278,1.125 6.1942,8.4894 1.9214,5.2278 -4.988,-4.1294 -4.004,-8.5418 -12.2563,-2.9232 -2.668,3.8256 0.16,6.957 1.8134,9.349 -3.0132,-0.9054 -6.3058,-5.7656 -10.7828,-4.5782 -4.9506,1.5424 1.166,7.901 4.5766,7.9784 2.3664,-0.2642 8.5085,2.222 3.3562,2.0296 -1.1086,3.6886 -0.118,8.4314 -0.4582,12.5246 -0.124,2.5897 -0.5738,6.2165 3.0258,4.0597 4.6967,-1.1526 8.8695,3.4912 6.1595,7.804 1.6598,2.8934 6.906,2.3088 7.4514,6.6794 3.5854,0.2234 7.5938,-1.1134 11.4082,-1.064 8.2974,-0.534 16.6444,0.022 24.8746,1.1078 1.4886,0.218 2.9168,0.71 4.3918,0.9774 z m -39.2736,-28.5665 c -5.7198,-1.3954 1.8814,-9.3028 2.7494,-3.108 -0.15,1.3918 -1.1884,3.1082 -2.7494,3.108 z m -13.0966,-20.4426 h 0.07 z m 1.1778,-0.4118 0.102,0.02 z m 7.821,49.2227 c 2.7278,-0.477 -0.9276,-1.2772 0,0 z m -11.7121,-2.6674 c 1.1436,-3.445 5.7965,-7.293 5.3135,-10.1262 -3.2545,-2.8106 -4.1061,3.8066 -5.8769,6.0028 1.825,-1.919 2.8406,-5.1102 4.8689,-6.4988 -1.2742,2.1962 -2.7503,9.8026 -4.2237,8.1704 2.6917,-2.2448 1.993,-5.7754 5.1947,-7.411 -1.0678,3.2652 -6.1855,6.2088 -5.2765,9.8628 z m 2.0798,-0.5452 -0.084,0.126 z m 7.0399,-2.4028 -0.09,-0.04 z m -4.853,-3.639 c -11.7275,29.4958 -5.8637,14.7478 0,0 z m -5.0103,1.7576 c 0.7898,-0.6494 1.1398,-2.667 0.2734,-0.7784 z m 0.02,-0.8338 c 1.4386,-1.7128 4.9127,-8.2686 1.4716,-3.7084 -0.2122,1.1016 -2.4334,2.728 -1.4716,3.7084 z m -1.956,-1.9754 h -0.068 z m 1.5394,-0.084 c 1.1744,-1.5986 2.2764,-4.8272 0.19,-1.791 -0.2734,0.5128 -0.6474,1.26 -0.19,1.791 z m -0.2812,-1.4478 c 1.3896,-1.6754 -1.6408,-0.817 0,0 z m 1.8668,-0.7598 -0.094,-0.04 z m -2.6442,-2.5168 h -0.05 z m -1.3314,-1.8492 h -0.088 z m 1.2388,-0.5916 h -0.07 z m 61.1673,-2.1279 c 0.924,-2.38 0.12,-5.1676 -0.9734,-1.5118 0.6844,-2.177 2.6136,-10.3868 0.2866,-4.4094 -0.5306,2.0254 -2.2024,5.0764 0.6868,5.9212 z m -61.1605,-0.174 v 0.042 z m 56.6673,-0.8424 h -0.068 z m 2.2204,-0.5152 c 0.5618,-3.7182 2.733,-7.0468 3.2074,-10.6602 -3.1986,-2.775 -4.5838,4.168 -5.7238,6.4514 -0.234,1.088 2.9652,-5.778 2.719,-5.3684 1.921,-3.1774 -4.1908,10.2736 -2.9714,7.6316 0.9236,2.1038 4.0804,-6.2872 2.8154,-5.2368 0.7732,-2.1576 2.5248,-3.7686 1.2352,-0.3822 0,1.8274 -4.9354,6.2896 -1.2818,7.5646 z m -0.5932,-0.8474 c 0.152,-2.735 2.3592,-5.6442 2.6526,-6.5254 -0.5602,2.3382 -1.8444,4.5274 -2.6526,6.5254 z m -14.865,0.5656 c 2.1924,-5.6888 5.7102,-10.7456 8.4558,-16.17 2.325,-3.5562 3.8456,-7.5252 5.7044,-11.3238 -2.5272,3.8702 -4.1018,8.2834 -6.8638,12.0212 -2.5876,4.7812 -4.934,9.7138 -8.162,14.1044 -0.813,0.8238 -0.3686,1.8412 0.8656,1.3682 z m 1.4074,-0.078 c 0.7804,-1.9 -2.3648,0.6558 0,0 z m -3.3782,-0.298 c 0.8448,-4.1844 4.3426,-7.446 5.605,-11.5864 0.8866,-1.7542 1.7508,-5.226 -0.188,-1.5134 -0.3274,1.0958 -0.3962,0.3748 -0.6096,1.4874 -0.2582,1.3456 0,0.5806 -0.5432,2.2488 -0.3532,1.0874 -0.967,0.999 -1.5628,1.9808 -0.596,0.982 -3.221,5.3072 -3.7246,6.3414 -1.1486,-0.612 5.0138,-7.1138 2.4564,-6.6212 -0.334,2.2524 -6.4116,7.4256 -1.4322,7.6626 z m 4.521,0.028 c 2.3182,-3.5414 4.187,-7.6432 6.5024,-11.3114 2.2856,-3.5468 4.0536,-7.379 5.5508,-11.3068 -2.2394,3.8112 -4.009,7.8818 -6.6094,11.4718 -0.4568,2.5332 -3.4744,5.5692 -4.4718,8.648 -0.11,0.7358 -1.8156,1.8112 -0.972,2.4984 z m -1.2112,-0.9066 c 4.2322,-7.0024 7.6512,-13.8536 12.051,-20.7564 1.4518,-1.7744 2.9978,-5.715 0.77,-4.2406 -3.4734,7.1984 -7.349,14.1654 -11.3068,21.113 -0.5896,1.2394 -1.4826,2.9264 -1.5142,3.884 z m -45.9711,0.158 v 0.09 z m 49.6377,-0.2116 c 3.3172,-0.2694 6.4054,-0.034 6.9734,-4.2658 0.977,-1.6494 4.0496,-9.6606 2.2604,-3.9552 -0.8504,1.9126 -5.1052,8.6326 -1.8712,7.2776 0.084,-3.4714 2.8428,-6.3868 3.6814,-9.7654 3.2332,-2.0672 10.4616,-3.561 10.53,-7.9168 -4.2454,-1.4274 -7.2852,-0.02 -10.543,2.6406 -2.7032,0.09 1.6278,-7.2436 0.196,-2.9598 -0.673,-2.1882 2.2894,-5.6822 -0.074,-2.318 -2.1156,4.8442 -3.8082,9.8794 -6.8316,14.2684 -1.1996,1.9856 -2.2258,4.917 0.022,1.4204 2.335,-2.89 3.747,-7.3676 5.8326,-9.7878 -1.4872,2.1882 0.6248,5.0872 -2.754,6.1146 -1.6194,1.9442 -2.961,7.733 -4.1202,8.4554 1.2048,-2.015 1.6748,-4.4248 -0.06,-1.0134 -1.9112,3.0542 -0.4122,-0.646 0.7694,-2.802 -1.662,1.2634 -4.1636,7.381 -1.7966,0.9162 2.3064,-4.9234 5.77,-9.2606 7.2334,-14.5816 0.7532,-1.7482 4.2462,-9.2708 1.3088,-4.677 -1.9798,3.942 -3.3368,8.1834 -5.3578,12.0956 -1.2398,3.7034 -4.8142,7.671 -5.3986,10.854 z m 4.56,-1.2288 c 0.208,-2.25 2.7704,-6.6756 3.1608,-7.013 -0.8102,2.2492 -2.324,4.7514 -3.1608,7.013 z m -7.3846,0.9728 c 1.2846,-1.368 -0.6456,0.3464 0,0 z m -6.8436,-0.088 c 0.5456,-1.7678 5.2432,-6.9198 2.5368,-6.676 -0.6264,1.5826 -5.3056,5.5682 -2.5368,6.676 z m 7.4032,-0.7584 c 1.9402,-3.2078 -0.3142,-0.5824 0,0 z m -3.2382,-0.5348 c 2.7338,-3.7926 5.2874,-7.899 6.8162,-12.2986 0.3558,-1.8094 4.0282,-7.9708 1.1256,-3.5482 -3.1438,5.0796 -4.6738,10.9508 -8.13,15.8642 l 0.188,-0.02 z m -5.5782,-0.156 c 1.1444,-1.645 3.6314,-5.4332 2.8206,-5.4882 -0.2474,1.2386 -3.926,4.5812 -2.8206,5.4882 z m 11.003,0.07 c 1.0628,-2.0464 4.0622,-6.2372 3.7326,-6.929 -1.188,2.2734 -2.8972,4.6596 -3.7326,6.929 z m -11.7884,-0.7386 c 0.779,-1.1738 2.3104,-3.2956 2.7746,-5.1584 0.5358,-1.7354 0.2752,-1.006 0.5912,-1.6798 -1.4348,1.76 -4.5664,7.859 -3.9338,6.3952 0.184,0 0.4,0.73 0.568,0.443 z m -0.8272,-1.6894 c 3.9944,-5.407 7.672,-11.0356 11.3952,-16.6056 -0.7224,2.0176 -2.5846,4.9538 -0.11,1.6468 2.2458,-2.5544 0.5044,-0.6524 0.5636,0.3852 1.3624,-3.76 4.4972,-6.7396 5.0956,-11.212 0.2802,-2.1656 0.2938,-6.5194 -1.1616,-7.6894 -2.1548,7.4454 -4.4574,10.072 -9.6106,16.4176 -1.186,0.6534 -1.8756,3.0682 -0.7816,3.23 0.4616,-1.5058 3.0688,-5.1188 1.2082,-1.3646 1.9044,-1.1758 3.315,-2.501 0.8194,-0.06 -2.0074,1.1012 -4.1966,9.426 -1.196,4.0338 0.6814,-1.7972 6.0224,-8.7858 3.2424,-3.9936 -2.6048,3.966 -5.5754,7.7324 -8.1848,11.6664 -1.584,0.086 -2.3936,2.5764 -1.2798,3.5462 z m 14.286,-3.9238 c 2.126,-3.5786 0.7788,-2.5198 0,0 z m -13.483,0.03 c 0.8844,-0.5866 1.6782,-2.8046 0.4452,-0.8462 z m 1.4642,-2.1818 c 2.4094,-2.2794 0.9152,-2.0104 0,0 z m 8.025,-1.0856 c 1.1838,-2.6622 3.9504,-5.9704 3.8782,-8.3828 -1.4576,1.03 -1.2852,3.268 -1.9538,3.617 -0.144,2.1904 -3.3386,2.939 -1.9244,4.7658 z m 5.8388,-0.106 c 2.1758,-3.062 0.3522,-1.7088 0,0 z m -9.6336,-0.605 c 1.8296,-1.0518 2.6096,-5.6686 0.9824,-1.5252 0.092,0.172 -1.6996,2.8628 -0.9824,1.5252 z m 2.853,-0.02 c 1.0508,-2.231 5.2726,-8.9772 4.0994,-8.17 -1.4776,2.4648 -4.6318,5.9124 -4.0994,8.17 z m -1.1602,-0.198 c 1.2386,-1.8488 3.4942,-7.3614 0.854,-2.8008 0.036,0.6126 -2.6412,3.3258 -0.854,2.8008 z m 6.81,-2.775 c 2.5136,-3.2454 4.038,-7.1122 5.8116,-10.7478 -1.6242,0.228 -3.0512,5.7676 -4.6076,8.0322 -0.4468,0.864 -1.0488,1.7446 -1.204,2.7156 z m 7.1514,-2.4468 v 0.066 z m -7.5332,-0.6604 c 2.5874,-3.0308 -1.4768,0.3196 0,0 z m 9.8376,-0.7186 c 1.4356,-1.3542 2.8388,-5.5498 0.6656,-1.8422 -0.3148,0.571 -0.707,1.1502 -0.6656,1.8422 z m -68.9507,-0.086 -0.06,0.034 z m 69.9113,-0.4402 c 3.154,-1.2066 0.217,-3.3626 0,0 z m -66.2697,-0.3026 h -0.05 z m 0.8692,-0.2588 h -0.088 z m 55.8627,-0.194 c 1.8954,-2.8122 0.601,-2.5574 0,0 z m 8.4488,0.128 c 0.9952,-1.6218 2.7276,-5.0968 0.3472,-1.6604 -0.176,0.4698 -0.7416,1.1566 -0.3472,1.6604 z m -7.3656,-0.136 c 0.5554,-1.7894 4.2368,-8.7166 1.4462,-4.0588 -0.132,0.7002 -2.7242,3.9988 -1.4462,4.0588 z m 6.188,-0.36 v 0.066 z m -18.2756,-1.906 c 2.2566,-0.5552 5.237,-6.9244 1.5446,-2.842 -1.6604,1.7762 -1.8016,3.489 -0.3232,0.5826 3.352,-4.8782 -3.8794,-0.066 -1.2214,2.2594 z m 3.07,-2.3962 c 2.315,-1.9708 -0.2076,1.5518 0,0 z m 9.969,-0.2468 c 1.9446,-0.9422 -0.136,-1.968 0,0 z m -13.5646,-0.138 c 2.434,-2.6348 -2.2684,-1.7772 0,0 z m -11.7146,-1.0446 h -0.088 z"
       style="fill:#000000;stroke-width:0.03698141" />
  </g>
</svg>
